i2c-clean/i2c_tb.vcd
$date
	Sat Aug 24 23:00:27 2019
$end
$version
	Icarus Verilog
$end
$timescale
	1s
$end
$scope module ICESTORM_LC $end
$var wire 1 ! CEN $end
$var wire 1 " CIN $end
$var wire 1 # CLK $end
$var wire 1 $ COUT $end
$var wire 1 % I0 $end
$var wire 1 & I1 $end
$var wire 1 ' I2 $end
$var wire 1 ( I3 $end
$var wire 1 ) LO $end
$var wire 1 * O $end
$var wire 1 + SR $end
$var wire 1 , polarized_clk $end
$var wire 8 - lut_s3 [7:0] $end
$var wire 4 . lut_s2 [3:0] $end
$var wire 2 / lut_s1 [1:0] $end
$var wire 1 0 lut_o $end
$var reg 1 1 o_reg $end
$upscope $end
$scope module SB_CARRY $end
$var wire 1 2 CI $end
$var wire 1 3 CO $end
$var wire 1 4 I0 $end
$var wire 1 5 I1 $end
$upscope $end
$scope module SB_DFF $end
$var wire 1 6 C $end
$var wire 1 7 D $end
$var reg 1 8 Q $end
$upscope $end
$scope module SB_DFFE $end
$var wire 1 9 C $end
$var wire 1 : D $end
$var wire 1 ; E $end
$var reg 1 < Q $end
$upscope $end
$scope module SB_DFFER $end
$var wire 1 = C $end
$var wire 1 > D $end
$var wire 1 ? E $end
$var wire 1 @ R $end
$var reg 1 A Q $end
$upscope $end
$scope module SB_DFFES $end
$var wire 1 B C $end
$var wire 1 C D $end
$var wire 1 D E $end
$var wire 1 E S $end
$var reg 1 F Q $end
$upscope $end
$scope module SB_DFFESR $end
$var wire 1 G C $end
$var wire 1 H D $end
$var wire 1 I E $end
$var wire 1 J R $end
$var reg 1 K Q $end
$upscope $end
$scope module SB_DFFESS $end
$var wire 1 L C $end
$var wire 1 M D $end
$var wire 1 N E $end
$var wire 1 O S $end
$var reg 1 P Q $end
$upscope $end
$scope module SB_DFFN $end
$var wire 1 Q C $end
$var wire 1 R D $end
$var reg 1 S Q $end
$upscope $end
$scope module SB_DFFNE $end
$var wire 1 T C $end
$var wire 1 U D $end
$var wire 1 V E $end
$var reg 1 W Q $end
$upscope $end
$scope module SB_DFFNER $end
$var wire 1 X C $end
$var wire 1 Y D $end
$var wire 1 Z E $end
$var wire 1 [ R $end
$var reg 1 \ Q $end
$upscope $end
$scope module SB_DFFNES $end
$var wire 1 ] C $end
$var wire 1 ^ D $end
$var wire 1 _ E $end
$var wire 1 ` S $end
$var reg 1 a Q $end
$upscope $end
$scope module SB_DFFNESR $end
$var wire 1 b C $end
$var wire 1 c D $end
$var wire 1 d E $end
$var wire 1 e R $end
$var reg 1 f Q $end
$upscope $end
$scope module SB_DFFNESS $end
$var wire 1 g C $end
$var wire 1 h D $end
$var wire 1 i E $end
$var wire 1 j S $end
$var reg 1 k Q $end
$upscope $end
$scope module SB_DFFNR $end
$var wire 1 l C $end
$var wire 1 m D $end
$var wire 1 n R $end
$var reg 1 o Q $end
$upscope $end
$scope module SB_DFFNS $end
$var wire 1 p C $end
$var wire 1 q D $end
$var wire 1 r S $end
$var reg 1 s Q $end
$upscope $end
$scope module SB_DFFNSR $end
$var wire 1 t C $end
$var wire 1 u D $end
$var wire 1 v R $end
$var reg 1 w Q $end
$upscope $end
$scope module SB_DFFNSS $end
$var wire 1 x C $end
$var wire 1 y D $end
$var wire 1 z S $end
$var reg 1 { Q $end
$upscope $end
$scope module SB_DFFR $end
$var wire 1 | C $end
$var wire 1 } D $end
$var wire 1 ~ R $end
$var reg 1 !" Q $end
$upscope $end
$scope module SB_DFFS $end
$var wire 1 "" C $end
$var wire 1 #" D $end
$var wire 1 $" S $end
$var reg 1 %" Q $end
$upscope $end
$scope module SB_DFFSR $end
$var wire 1 &" C $end
$var wire 1 '" D $end
$var wire 1 (" R $end
$var reg 1 )" Q $end
$upscope $end
$scope module SB_DFFSS $end
$var wire 1 *" C $end
$var wire 1 +" D $end
$var wire 1 ," S $end
$var reg 1 -" Q $end
$upscope $end
$scope module SB_GB $end
$var wire 1 ." GLOBAL_BUFFER_OUTPUT $end
$var wire 1 /" USER_SIGNAL_TO_GLOBAL_BUFFER $end
$upscope $end
$scope module SB_GB_IO $end
$var wire 1 0" CLOCK_ENABLE $end
$var wire 1 1" D_OUT_0 $end
$var wire 1 2" D_OUT_1 $end
$var wire 1 3" GLOBAL_BUFFER_OUTPUT $end
$var wire 1 4" INPUT_CLK $end
$var wire 1 5" LATCH_INPUT_VALUE $end
$var wire 1 6" OUTPUT_CLK $end
$var wire 1 7" OUTPUT_ENABLE $end
$var wire 1 8" PACKAGE_PIN $end
$var wire 1 9" D_IN_1 $end
$var wire 1 :" D_IN_0 $end
$scope module IO $end
$var wire 1 0" CLOCK_ENABLE $end
$var wire 1 :" D_IN_0 $end
$var wire 1 9" D_IN_1 $end
$var wire 1 1" D_OUT_0 $end
$var wire 1 2" D_OUT_1 $end
$var wire 1 4" INPUT_CLK $end
$var wire 1 5" LATCH_INPUT_VALUE $end
$var wire 1 6" OUTPUT_CLK $end
$var wire 1 7" OUTPUT_ENABLE $end
$var wire 1 8" PACKAGE_PIN $end
$var reg 1 ;" din_0 $end
$var reg 1 <" din_1 $end
$var reg 1 =" din_q_0 $end
$var reg 1 >" din_q_1 $end
$var reg 1 ?" dout $end
$var reg 1 @" dout_q_0 $end
$var reg 1 A" dout_q_1 $end
$var reg 1 B" outclk_delayed_1 $end
$var reg 1 C" outclk_delayed_2 $end
$var reg 1 D" outena_q $end
$scope begin genblk1 $end
$upscope $end
$upscope $end
$upscope $end
$scope module SB_LUT4 $end
$var wire 1 E" I0 $end
$var wire 1 F" I1 $end
$var wire 1 G" I2 $end
$var wire 1 H" I3 $end
$var wire 8 I" s3 [7:0] $end
$var wire 4 J" s2 [3:0] $end
$var wire 2 K" s1 [1:0] $end
$var wire 1 L" O $end
$upscope $end
$scope module SB_PLL40_2F_CORE $end
$var wire 1 M" BYPASS $end
$var wire 8 N" DYNAMICDELAY [7:0] $end
$var wire 1 O" EXTFEEDBACK $end
$var wire 1 P" LATCHINPUTVALUE $end
$var wire 1 Q" LOCK $end
$var wire 1 R" PLLOUTCOREA $end
$var wire 1 S" PLLOUTCOREB $end
$var wire 1 T" PLLOUTGLOBALA $end
$var wire 1 U" PLLOUTGLOBALB $end
$var wire 1 V" REFERENCECLK $end
$var wire 1 W" RESETB $end
$var wire 1 X" SCLK $end
$var wire 1 Y" SDI $end
$var wire 1 Z" SDO $end
$upscope $end
$scope module SB_PLL40_2F_PAD $end
$var wire 1 [" BYPASS $end
$var wire 8 \" DYNAMICDELAY [7:0] $end
$var wire 1 ]" EXTFEEDBACK $end
$var wire 1 ^" LATCHINPUTVALUE $end
$var wire 1 _" LOCK $end
$var wire 1 `" PACKAGEPIN $end
$var wire 1 a" PLLOUTCOREA $end
$var wire 1 b" PLLOUTCOREB $end
$var wire 1 c" PLLOUTGLOBALA $end
$var wire 1 d" PLLOUTGLOBALB $end
$var wire 1 e" RESETB $end
$var wire 1 f" SCLK $end
$var wire 1 g" SDI $end
$var wire 1 h" SDO $end
$upscope $end
$scope module SB_PLL40_2_PAD $end
$var wire 1 i" BYPASS $end
$var wire 8 j" DYNAMICDELAY [7:0] $end
$var wire 1 k" EXTFEEDBACK $end
$var wire 1 l" LATCHINPUTVALUE $end
$var wire 1 m" LOCK $end
$var wire 1 n" PACKAGEPIN $end
$var wire 1 o" PLLOUTCOREA $end
$var wire 1 p" PLLOUTCOREB $end
$var wire 1 q" PLLOUTGLOBALA $end
$var wire 1 r" PLLOUTGLOBALB $end
$var wire 1 s" RESETB $end
$var wire 1 t" SCLK $end
$var wire 1 u" SDI $end
$var wire 1 v" SDO $end
$upscope $end
$scope module SB_PLL40_CORE $end
$var wire 1 w" BYPASS $end
$var wire 8 x" DYNAMICDELAY [7:0] $end
$var wire 1 y" EXTFEEDBACK $end
$var wire 1 z" LATCHINPUTVALUE $end
$var wire 1 {" LOCK $end
$var wire 1 |" PLLOUTCORE $end
$var wire 1 }" PLLOUTGLOBAL $end
$var wire 1 ~" REFERENCECLK $end
$var wire 1 !# RESETB $end
$var wire 1 "# SCLK $end
$var wire 1 ## SDI $end
$var wire 1 $# SDO $end
$upscope $end
$scope module SB_PLL40_PAD $end
$var wire 1 %# BYPASS $end
$var wire 8 &# DYNAMICDELAY [7:0] $end
$var wire 1 '# EXTFEEDBACK $end
$var wire 1 (# LATCHINPUTVALUE $end
$var wire 1 )# LOCK $end
$var wire 1 *# PACKAGEPIN $end
$var wire 1 +# PLLOUTCORE $end
$var wire 1 ,# PLLOUTGLOBAL $end
$var wire 1 -# RESETB $end
$var wire 1 .# SCLK $end
$var wire 1 /# SDI $end
$var wire 1 0# SDO $end
$upscope $end
$scope module SB_RAM40_4KNR $end
$var wire 16 1# MASK [15:0] $end
$var wire 11 2# RADDR [10:0] $end
$var wire 1 3# RCLKE $end
$var wire 1 4# RCLKN $end
$var wire 1 5# RE $end
$var wire 11 6# WADDR [10:0] $end
$var wire 1 7# WCLK $end
$var wire 1 8# WCLKE $end
$var wire 16 9# WDATA [15:0] $end
$var wire 1 :# WE $end
$var wire 16 ;# RDATA [15:0] $end
$scope module RAM $end
$var wire 16 <# MASK [15:0] $end
$var wire 11 =# RADDR [10:0] $end
$var wire 1 ># RCLK $end
$var wire 1 3# RCLKE $end
$var wire 1 5# RE $end
$var wire 16 ?# RMASK_I [15:0] $end
$var wire 11 @# WADDR [10:0] $end
$var wire 1 7# WCLK $end
$var wire 1 8# WCLKE $end
$var wire 16 A# WDATA [15:0] $end
$var wire 1 :# WE $end
$var wire 16 B# WMASK_I [15:0] $end
$var wire 16 C# WDATA_I [15:0] $end
$var wire 16 D# RDATA [15:0] $end
$var reg 16 E# RDATA_I [15:0] $end
$var integer 32 F# i [31:0] $end
$scope begin genblk1 $end
$upscope $end
$scope begin genblk2 $end
$upscope $end
$scope begin genblk3 $end
$upscope $end
$scope begin genblk4 $end
$upscope $end
$upscope $end
$upscope $end
$scope module SB_RAM40_4KNRNW $end
$var wire 16 G# MASK [15:0] $end
$var wire 11 H# RADDR [10:0] $end
$var wire 1 I# RCLKE $end
$var wire 1 J# RCLKN $end
$var wire 1 K# RE $end
$var wire 11 L# WADDR [10:0] $end
$var wire 1 M# WCLKE $end
$var wire 1 N# WCLKN $end
$var wire 16 O# WDATA [15:0] $end
$var wire 1 P# WE $end
$var wire 16 Q# RDATA [15:0] $end
$scope module RAM $end
$var wire 16 R# MASK [15:0] $end
$var wire 11 S# RADDR [10:0] $end
$var wire 1 T# RCLK $end
$var wire 1 I# RCLKE $end
$var wire 1 K# RE $end
$var wire 16 U# RMASK_I [15:0] $end
$var wire 11 V# WADDR [10:0] $end
$var wire 1 W# WCLK $end
$var wire 1 M# WCLKE $end
$var wire 16 X# WDATA [15:0] $end
$var wire 1 P# WE $end
$var wire 16 Y# WMASK_I [15:0] $end
$var wire 16 Z# WDATA_I [15:0] $end
$var wire 16 [# RDATA [15:0] $end
$var reg 16 \# RDATA_I [15:0] $end
$var integer 32 ]# i [31:0] $end
$scope begin genblk1 $end
$upscope $end
$scope begin genblk2 $end
$upscope $end
$scope begin genblk3 $end
$upscope $end
$scope begin genblk4 $end
$upscope $end
$upscope $end
$upscope $end
$scope module SB_RAM40_4KNW $end
$var wire 16 ^# MASK [15:0] $end
$var wire 11 _# RADDR [10:0] $end
$var wire 1 `# RCLK $end
$var wire 1 a# RCLKE $end
$var wire 1 b# RE $end
$var wire 11 c# WADDR [10:0] $end
$var wire 1 d# WCLKE $end
$var wire 1 e# WCLKN $end
$var wire 16 f# WDATA [15:0] $end
$var wire 1 g# WE $end
$var wire 16 h# RDATA [15:0] $end
$scope module RAM $end
$var wire 16 i# MASK [15:0] $end
$var wire 11 j# RADDR [10:0] $end
$var wire 1 `# RCLK $end
$var wire 1 a# RCLKE $end
$var wire 1 b# RE $end
$var wire 16 k# RMASK_I [15:0] $end
$var wire 11 l# WADDR [10:0] $end
$var wire 1 m# WCLK $end
$var wire 1 d# WCLKE $end
$var wire 16 n# WDATA [15:0] $end
$var wire 1 g# WE $end
$var wire 16 o# WMASK_I [15:0] $end
$var wire 16 p# WDATA_I [15:0] $end
$var wire 16 q# RDATA [15:0] $end
$var reg 16 r# RDATA_I [15:0] $end
$var integer 32 s# i [31:0] $end
$scope begin genblk1 $end
$upscope $end
$scope begin genblk2 $end
$upscope $end
$scope begin genblk3 $end
$upscope $end
$scope begin genblk4 $end
$upscope $end
$upscope $end
$upscope $end
$scope module SB_WARMBOOT $end
$var wire 1 t# BOOT $end
$var wire 1 u# S0 $end
$var wire 1 v# S1 $end
$upscope $end
$scope module i2c_tb $end
$var wire 1 w# trouble $end
$var wire 1 x# sda $end
$var wire 1 y# scl $end
$var wire 1 z# next $end
$var reg 1 {# ack $end
$var reg 1 |# clock $end
$var reg 4 }# comNum [3:0] $end
$var reg 8 ~# command [7:0] $end
$var reg 2 !$ count [1:0] $end
$var reg 1 "$ dummy_ack $end
$var reg 1 #$ dummy_enable $end
$var reg 1 $$ enable $end
$scope module U_i2c $end
$var wire 1 {# ack $end
$var wire 1 |# clock $end
$var wire 8 %$ command [7:0] $end
$var wire 1 $$ enable $end
$var wire 9 &$ word [8:0] $end
$var reg 1 '$ dummy $end
$var reg 1 ($ fin $end
$var reg 4 )$ index [3:0] $end
$var reg 1 z# next $end
$var reg 2 *$ phase [1:0] $end
$var reg 2 +$ phase2 [1:0] $end
$var reg 1 y# scl $end
$var reg 1 x# sda $end
$var reg 1 ,$ send_data $end
$var reg 1 -$ start $end
$var reg 1 w# trouble $end
$upscope $end
$upscope $end
$scope module top $end
$var wire 1 .$ CLK $end
$var wire 1 /$ USBPU $end
$var wire 32 0$ blink_pattern [31:0] $end
$var wire 1 1$ LED $end
$var reg 26 2$ blink_counter [25:0] $end
$upscope $end
$enddefinitions $end
#0
$dumpvars
bx 2$
x1$
b101010001110111011100010101 0$
0/$
z.$
0-$
0,$
b0 +$
b0 *$
b0 )$
0($
0'$
b101010100 &$
b10101010 %$
x$$
0#$
0"$
b0 !$
b10101010 ~#
b10 }#
1|#
0{#
0z#
1y#
1x#
0w#
zv#
zu#
zt#
b10000 s#
bx r#
bx q#
bz p#
bz o#
bz n#
zm#
bz l#
b0 k#
bz j#
bz i#
bx h#
zg#
bz f#
ze#
zd#
bz c#
zb#
za#
z`#
bz _#
bz ^#
b10000 ]#
bx \#
bx [#
bz Z#
bz Y#
bz X#
zW#
bz V#
b0 U#
zT#
bz S#
bz R#
bx Q#
zP#
bz O#
zN#
zM#
bz L#
zK#
zJ#
zI#
bz H#
bz G#
b10000 F#
bx E#
bx D#
bz C#
bz B#
bz A#
bz @#
b0 ?#
z>#
bz =#
bz <#
bx ;#
z:#
bz 9#
z8#
z7#
bz 6#
z5#
z4#
z3#
bz 2#
bz 1#
z0#
z/#
z.#
z-#
z,#
z+#
z*#
z)#
z(#
z'#
bz &#
z%#
z$#
z##
z"#
z!#
z~"
z}"
z|"
z{"
zz"
zy"
bz x"
zw"
zv"
zu"
zt"
zs"
zr"
zq"
zp"
zo"
zn"
zm"
zl"
zk"
bz j"
zi"
zh"
zg"
zf"
ze"
zd"
zc"
zb"
za"
z`"
z_"
z^"
z]"
bz \"
z["
zZ"
zY"
zX"
zW"
zV"
zU"
zT"
zS"
zR"
zQ"
zP"
zO"
bz N"
zM"
0L"
b0 K"
b0 J"
b0 I"
zH"
zG"
zF"
zE"
xD"
zC"
zB"
xA"
x@"
x?"
x>"
x="
x<"
x;"
x:"
x9"
z8"
z7"
z6"
z5"
z4"
z3"
z2"
z1"
z0"
z/"
z."
0-"
z,"
z+"
z*"
0)"
z("
z'"
z&"
0%"
z$"
z#"
z""
0!"
z~
z}
z|
0{
zz
zy
zx
0w
zv
zu
zt
0s
zr
zq
zp
0o
zn
zm
zl
0k
zj
zi
zh
zg
0f
ze
zd
zc
zb
0a
z`
z_
z^
z]
0\
z[
zZ
zY
zX
0W
zV
zU
zT
0S
zR
zQ
0P
zO
zN
zM
zL
0K
zJ
zI
zH
zG
0F
zE
zD
zC
zB
0A
z@
z?
z>
z=
0<
z;
z:
z9
08
z7
z6
z5
z4
x3
z2
x1
00
b0 /
b0 .
b0 -
x,
z+
0*
0)
z(
z'
z&
z%
x$
z#
z"
z!
$end
#5
0|#
#10
1'$
1-$
1|#
1$$
#15
0|#
#20
b1 +$
1|#
#25
0|#
#30
b10 +$
0x#
1|#
#35
0|#
#40
b11 +$
0y#
1|#
#45
0|#
#50
b0 +$
1,$
0-$
1|#
#55
0|#
#60
b1 *$
1|#
#65
0|#
#70
b1 )$
b10 *$
1x#
1|#
#75
0|#
#80
b11 *$
1y#
1|#
#85
0|#
#90
b0 *$
0y#
1|#
#95
0|#
#100
b1 *$
1|#
#105
0|#
#110
b10 )$
b10 *$
0x#
1|#
#115
0|#
#120
b11 *$
1y#
1|#
#125
0|#
#130
b0 *$
0y#
1|#
#135
0|#
#140
b1 *$
1|#
#145
0|#
#150
b11 )$
b10 *$
1x#
1|#
#155
0|#
#160
b11 *$
1y#
1|#
#165
0|#
#170
b0 *$
0y#
1|#
#175
0|#
#180
b1 *$
1|#
#185
0|#
#190
b100 )$
b10 *$
0x#
1|#
#195
0|#
#200
b11 *$
1y#
1|#
#205
0|#
#210
b0 *$
0y#
1|#
#215
0|#
#220
b1 *$
1|#
#225
0|#
#230
b101 )$
b10 *$
1x#
1|#
#235
0|#
#240
b11 *$
1y#
1|#
#245
0|#
#250
b0 *$
0y#
1|#
#255
0|#
#260
b1 *$
1|#
#265
0|#
#270
b110 )$
b10 *$
0x#
1|#
#275
0|#
#280
b11 *$
1y#
1|#
#285
0|#
#290
b0 *$
0y#
1|#
#295
0|#
#300
b1 *$
1|#
#305
0|#
#310
b111 )$
b10 *$
1x#
1|#
#315
0|#
#320
b11 *$
1y#
1|#
#325
0|#
#330
b0 *$
0y#
1|#
#335
0|#
#340
b1 *$
1|#
#345
0|#
#350
b1000 )$
b10 *$
0x#
1|#
#355
0|#
#360
b11 *$
1y#
1|#
#365
0|#
#370
b0 *$
0y#
1|#
#375
0|#
#380
b1 *$
1|#
#385
0|#
#390
b1001 )$
b10 *$
1|#
#395
0|#
#400
b11 *$
1y#
1|#
#405
0|#
#410
b1000100 &$
1#$
1{#
b1 }#
b100010 ~#
b100010 %$
0,$
b0 )$
1z#
b0 *$
0y#
1|#
#415
0|#
#420
0z#
1,$
1|#
#425
0|#
#430
0#$
0{#
b1 *$
1|#
#435
0|#
#440
b1 )$
b10 *$
1|#
#445
0|#
#450
b11 *$
1y#
1|#
#455
0|#
#460
b0 *$
0y#
1|#
#465
0|#
#470
b1 *$
1|#
#475
0|#
#480
b10 )$
b10 *$
1|#
#485
0|#
#490
b11 *$
1y#
1|#
#495
0|#
#500
b0 *$
0y#
1|#
#505
0|#
#510
b1 *$
1|#
#515
0|#
#520
b11 )$
b10 *$
1x#
1|#
#525
0|#
#530
b11 *$
1y#
1|#
#535
0|#
#540
b0 *$
0y#
1|#
#545
0|#
#550
b1 *$
1|#
#555
0|#
#560
b100 )$
b10 *$
0x#
1|#
#565
0|#
#570
b11 *$
1y#
1|#
#575
0|#
#580
b0 *$
0y#
1|#
#585
0|#
#590
b1 *$
1|#
#595
0|#
#600
b101 )$
b10 *$
1|#
#605
0|#
#610
b11 *$
1y#
1|#
#615
0|#
#620
b0 *$
0y#
1|#
#625
0|#
#630
b1 *$
1|#
#635
0|#
#640
b110 )$
b10 *$
1|#
#645
0|#
#650
b11 *$
1y#
1|#
#655
0|#
#660
b0 *$
0y#
1|#
#665
0|#
#670
b1 *$
1|#
#675
0|#
#680
b111 )$
b10 *$
1x#
1|#
#685
0|#
#690
b11 *$
1y#
1|#
#695
0|#
#700
b0 *$
0y#
1|#
#705
0|#
#710
b1 *$
1|#
#715
0|#
#720
b1000 )$
b10 *$
0x#
1|#
#725
0|#
#730
b11 *$
1y#
1|#
#735
0|#
#740
b0 *$
0y#
1|#
#745
0|#
#750
b1 *$
1|#
#755
0|#
#760
b1001 )$
b10 *$
1|#
#765
0|#
#770
b11 *$
1y#
1|#
#775
0|#
#780
0,$
b0 )$
1z#
b0 *$
0y#
1|#
#785
0|#
#790
b100010 &$
1#$
1{#
b0 }#
b10001 ~#
b10001 %$
1|#
#795
0|#
#800
0z#
1,$
1|#
#805
0|#
#810
0#$
0{#
b1 *$
1|#
#815
0|#
#820
b1 )$
b10 *$
1|#
#825
0|#
#830
b11 *$
1y#
1|#
#835
0|#
#840
b0 *$
0y#
1|#
#845
0|#
#850
b1 *$
1|#
#855
0|#
#860
b10 )$
b10 *$
1|#
#865
0|#
#870
b11 *$
1y#
1|#
#875
0|#
#880
b0 *$
0y#
1|#
#885
0|#
#890
b1 *$
1|#
#895
0|#
#900
b11 )$
b10 *$
1|#
#905
0|#
#910
b11 *$
1y#
1|#
#915
0|#
#920
b0 *$
0y#
1|#
#925
0|#
#930
b1 *$
1|#
#935
0|#
#940
b100 )$
b10 *$
1x#
1|#
#945
0|#
#950
b11 *$
1y#
1|#
#955
0|#
#960
b0 *$
0y#
1|#
#965
0|#
#970
b1 *$
1|#
#975
0|#
#980
b101 )$
b10 *$
0x#
1|#
#985
0|#
#990
b11 *$
1y#
1|#
#995
0|#
#1000
b0 *$
0y#
1|#
#1005
0|#
#1010
b1 *$
1|#
#1015
0|#
#1020
b110 )$
b10 *$
1|#
#1025
0|#
#1030
b11 *$
1y#
1|#
#1035
0|#
#1040
b0 *$
0y#
1|#
#1045
0|#
#1050
b1 *$
1|#
#1055
0|#
#1060
b111 )$
b10 *$
1|#
#1065
0|#
#1070
b11 *$
1y#
1|#
#1075
0|#
#1080
b0 *$
0y#
1|#
#1085
0|#
#1090
b1 *$
1|#
#1095
0|#
#1100
b1000 )$
b10 *$
1x#
1|#
#1105
0|#
#1110
b11 *$
1y#
1|#
#1115
0|#
#1120
b0 *$
0y#
1|#
#1125
0|#
#1130
b1 *$
1|#
#1135
0|#
#1140
b1001 )$
b10 *$
0x#
1|#
#1145
0|#
#1150
b11 *$
1y#
1|#
#1155
0|#
#1160
0,$
b0 )$
1z#
b0 *$
0y#
1|#
#1165
0|#
#1170
1#$
0$$
1|#
#1175
0|#
#1180
1($
1|#
#1185
0|#
#1190
b1 *$
1|#
#1195
0|#
#1200
b10 *$
1y#
1|#
#1205
0|#
#1210
b11 *$
1x#
1|#
#1215
0|#
#1220
0'$
0($
b0 *$
1|#
